Babynames
…
Babynames

    Author

             David Kane 

# A tibble: 77,883 × 5
    year sex   name         n      prop
   <dbl> <chr> <chr>    <dbl>     <dbl>
 1  1880 F     Naomi       32 0.000328 
 2  1880 F     Missouri    23 0.000236 
 3  1880 F     Mai          6 0.0000615
 4  1880 M     Levi       112 0.000946 
 5  1880 M     Eli         73 0.000617 
 6  1880 M     Malachi     10 0.0000845
 7  1880 M     Moroni       5 0.0000422
 8  1881 F     Naomi       55 0.000556 
 9  1881 F     Missouri    17 0.000172 
10  1881 F     Mai          6 0.0000607
# ℹ 77,873 more rows
